Introduction to tidymodels
…
...
and 116 more lines.

flights_fit %>% 
  extract_fit_parsnip() %>% 
  tidy()

# A tibble: 157 × 5
   term                         estimate std.error statistic  p.value
   <chr>                           <dbl>     <dbl>     <dbl>    <dbl>
 1 (Intercept)                   7.28    2.73           2.67 7.64e- 3
 2 dep_time                     -0.00166 0.0000141   -118.   0       
 3 air_time                     -0.0440  0.000563     -78.2  0       
 4 distance                      0.00507 0.00150        3.38 7.32e- 4
 5 date_USChristmasDay           1.33    0.177          7.49 6.93e-14
 6 date_USColumbusDay            0.724   0.170          4.25 2.13e- 5
 7 date_USCPulaskisBirthday      0.807   0.139          5.80 6.57e- 9
 8 date_USDecorationMemorialDay  0.585   0.117          4.98 6.32e- 7
 9 date_USElectionDay            0.948   0.190          4.98 6.25e- 7
10 date_USGoodFriday             1.25    0.167          7.45 9.40e-14
# … with 147 more rows

2.4 Predict with Workflow

flights_fit %>% predict(test_data_tbl)

# A tibble: 81,455 × 1
   .pred_class
   <fct>      
 1 on_time    
 2 on_time    
 3 on_time    
 4 on_time    
 5 on_time    
 6 on_time    
 7 on_time    
 8 on_time    
 9 on_time    
10 on_time    
# … with 81,445 more rows

flights_aug_tbl <- augment(flights_fit, test_data_tbl)

# The data look like: 
flights_aug_tbl %>%
  select(arr_delay, time_hour, flight, .pred_class, .pred_on_time)

# A tibble: 81,455 × 5
   arr_delay time_hour           flight .pred_class .pred_on_time
   <fct>     <dttm>               <int> <fct>               <dbl>
 1 on_time   2013-01-01 05:00:00   1545 on_time             0.945
 2 on_time   2013-01-01 05:00:00   1714 on_time             0.949
 3 on_time   2013-01-01 06:00:00    507 on_time             0.964
 4 on_time   2013-01-01 06:00:00   5708 on_time             0.961
 5 on_time   2013-01-01 06:00:00     71 on_time             0.962
 6 on_time   2013-01-01 06:00:00    194 on_time             0.975
 7 on_time   2013-01-01 06:00:00   1124 on_time             0.963
 8 on_time   2013-01-01 05:00:00   1806 on_time             0.981
 9 on_time   2013-01-01 06:00:00   1187 on_time             0.935
10 on_time   2013-01-01 06:00:00   4650 on_time             0.931
# … with 81,445 more rows
…
Computational engine: rpart 

4.1 Model Tuning on Grid

We now want to set up the tuning process on a grid.

tree_grid_tbl <- grid_regular(
  cost_complexity(),
  tree_depth(),
  levels = 5
  )

tree_grid_tbl %>% print()

# A tibble: 25 × 2
   cost_complexity tree_depth
             <dbl>      <int>
 1    0.0000000001          1
 2    0.0000000178          1
 3    0.00000316            1
 4    0.000562              1
 5    0.1                   1
 6    0.0000000001          4
 7    0.0000000178          4
 8    0.00000316            4
 9    0.000562              4
10    0.1                   4
# … with 15 more rows
…
tree_res %>% collect_metrics()

# A tibble: 50 × 8
   cost_complexity tree_depth .metric  .estimator  mean     n std_err .config   
             <dbl>      <int> <chr>    <chr>      <dbl> <int>   <dbl> <chr>     
 1    0.0000000001          1 accuracy binary     0.732    10  0.0148 Preproces…
 2    0.0000000001          1 roc_auc  binary     0.777    10  0.0107 Preproces…
 3    0.0000000178          1 accuracy binary     0.732    10  0.0148 Preproces…
 4    0.0000000178          1 roc_auc  binary     0.777    10  0.0107 Preproces…
 5    0.00000316            1 accuracy binary     0.732    10  0.0148 Preproces…
 6    0.00000316            1 roc_auc  binary     0.777    10  0.0107 Preproces…
 7    0.000562              1 accuracy binary     0.732    10  0.0148 Preproces…
 8    0.000562              1 roc_auc  binary     0.777    10  0.0107 Preproces…
 9    0.1                   1 accuracy binary     0.732    10  0.0148 Preproces…
10    0.1                   1 roc_auc  binary     0.777    10  0.0107 Preproces…
# … with 40 more rows
…
rf_best <- rf_res %>% select_best(metric = "roc_auc")

rf_res %>% collect_predictions()

# A tibble: 187,500 × 8
   id         .pred_children .pred_none  .row  mtry min_n children .config      
   <chr>               <dbl>      <dbl> <int> <int> <int> <fct>    <chr>        
 1 validation       0.148         0.852    13    12     7 none     Preprocessor…
 2 validation       0.0262        0.974    20    12     7 none     Preprocessor…
 3 validation       0.472         0.528    22    12     7 children Preprocessor…
 4 validation       0.00918       0.991    23    12     7 none     Preprocessor…
 5 validation       0.0110        0.989    31    12     7 none     Preprocessor…
 6 validation       0.000643      0.999    38    12     7 none     Preprocessor…
 7 validation       0             1        39    12     7 none     Preprocessor…
 8 validation       0.00235       0.998    50    12     7 none     Preprocessor…
 9 validation       0.0217        0.978    54    12     7 none     Preprocessor…
10 validation       0.0389        0.961    57    12     7 children Preprocessor…
# … with 187,490 more rows
…
